852029 643248
474985 103720
149947 122104
165521 39218
435827 695711
68473 801878
597548 982138
956039 384890
268912 755157
239221 74245
400306 28952
812061 161643
839183 289789
462990 47375
56616 574044
974673 12726
529584 828859
34684 416249
341538 383756
524565 721030
732722 516802
186559 973454
92879 870478
73479 279728
522507 514108
978384 38511
546382 119872
926691 654806
363134 175675
291719 479865
928515 606923
68138 844505
154326 173016
97289 703126
810023 742606
72281 264835
450379 489031
26184 66930
883582 703043
976988 46095
445187 717671
262938 7812
760853 771770
572399 476156
922756 825648
615619 517374
667120 678115
926869 620541
808013 673203
51730 504049
764141 190516
242535 773236
18842 697184
455033 713892
494658 303288
866336 846456
849752 412674
138197 29341
170691 594296
730617 2406
736141 256116
915332 41232
267457 658603
516416 758967
980412 320842
995420 174982
137211 293182
722955 402042
462310 819341
692859 610226
750314 742339
510476 218369
228130 431444
210201 729639
285584 812834
309906 134556
404314 350733
267961 335323
223648 848852
388866 843244
82300 622581
685626 4902
399057 711759
483616 233003
141028 48192
825479 929034
858165 655298
246423 227818
329587 678341
221325 5844
479681 148428
161502 770561
806826 876709
762180 101471
450985 402072
285913 362418
818402 534590
599014 570636
672890 327561
738241 140545
499007 473084
311594 556514
906670 125749
718932 302708
550294 483804
942276 880241
108888 155879
141649 660203
232057 663039
963056 325068
814640 241032
886611 592673
652238 876390
357136 35216
155332 479711
231935 749967
376805 226573
809756 942312
462471 67476
390091 330443
676258 90812
87278 679791
940385 683764
996326 627050
78196 509976
220731 522819
159313 898994
988622 199016
886602 475729
870826 75594
541335 964399
6963 889974
692536 451215
773432 16588
982579 619138
321523 170445
261141 860616
601312 721074
784930 8183
514688 695568
619235 153675
732256 102825
215336 867040
818049 496040
751745 845297
983580 470593
736327 302091
761176 608188
194512 531485
692647 150191
627362 797943
791996 70426
250792 15736
614801 525657
637455 871073
649464 819110
809380 665897
251212 900764
925876 794427
50497 579529
786767 989542
962044 445110
622840 404642
334182 758702
336495 337131
400291 454365
671115 156219
625778 951083
208998 142407
808509 432443
176622 721169
291918 220720
335365 485267
376946 191709
919381 313991
583575 363980
953343 3928
945423 236948
295897 523036
106542 555230
318502 640288
801877 373738
781800 365021
448069 396189
617228 775277
958030 335507
598248 512180
9671 368196
178665 598653
772235 170633
705598 8119
931063 799322
468115 259414
320342 719690
861552 384559
740414 692040
299354 619443
595262 853684
894022 505718
43577 306606
200858 331145
625509 41279
179268 521551
797737 707380
169046 7977
32042 340030
185082 122642
368668 434503
6368 122964
517798 249495
173815 990626
808854 401279
784350 143311
