731532 650041 504
911481 40863 525
327660 227670 443
382996 238457 441
579688 532842 452
498699 843797 525
995068 396988 525
339565 56179 443
988405 297287 525
471296 138017 449
273820 820356 509
312374 153867 443
423145 693646 509
571697 419793 470
540054 545047 408
338071 589540 470
655032 614365 509
183365 80087 383
4794 235548 443
770349 833499 468
187366 854612 525
41421 562467 470
916512 337805 525
692378 334510 509
414116 729215 509
890620 895271 370
845263 554637 525
265609 851493 525
335873 542876 470
631335 2614 509
447510 887506 525
339148 702356 509
49834 14025 324
97467 175265 383
877183 828489 525
790388 452294 509
119705 680797 509
531138 129694 470
830408 261689 509
564845 41053 470
55591 390742 443
324316 844668 525
436456 224512 449
106033 380840 443
896396 168381 525
557642 954925 525
245214 721850 509
386046 486438 449
70061 695390 509
935830 690856 525
106823 153818 375
472420 446014 444
46887 323198 443
742968 648630 504
372761 739791 509
876011 122922 525
567422 751858 509
921576 917533 432
258568 2004 443
674111 628228 442
87180 123211 354
233257 264585 407
681242 242789 509
93330 866189 525
764592 27812 509
926758 487249 525
24173 893166 525
797347 894169 525
544907 383943 470
611455 245539 470
210413 805311 509
111626 967253 525
631079 1087 509
643303 319003 509
888396 976853 507
683080 65922 509
246705 609542 470
508761 61684 449
468020 502494 426
619931 34607 470
424615 360605 449
394946 247131 441
175511 619407 470
336338 305807 384
991986 536603 525
90423 627009 509
707409 404777 509
165468 583345 470
971605 320258 525
537087 944304 525
324868 279474 389
376081 602660 470
994366 144333 525
883128 626542 525
281966 657832 509
613110 973521 525
509528 377695 449
293433 962106 525
798968 285370 509
656523 85113 509
870646 560744 525
417425 449016 418
494905 155114 449
352123 207630 443
935655 277113 525
993622 203814 525
492946 334983 449
571651 16373 470
12998 149580 375
659199 878457 525
891482 827906 525
830972 987465 525
809090 262412 509
625910 44978 470
831860 466795 509
14643 886013 525
308694 434348 449
360547 150800 443
561859 127156 470
509063 574548 470
320870 971495 525
715986 451747 509
665393 349719 509
826660 248395 509
300221 330739 384
191477 943059 525
419108 266637 449
740020 872289 525
151369 259018 443
230200 50299 386
810848 291284 509
782419 865387 525
383047 966293 525
905947 602064 525
4201 272354 443
617676 432598 470
666836 61779 509
626716 927875 525
252614 78474 443
439436 5905 449
671004 740199 504
37184 702545 509
146193 168057 383
258199 756384 509
17626 996033 525
163279 233184 443
536855 86075 470
266957 814126 509
470205 355893 449
467066 543133 470
423209 279015 449
746382 242889 509
244838 969467 525
829930 566214 509
697358 749879 504
808786 782634 468
764303 211095 509
862320 757449 525
513915 191813 470
105565 253069 443
417398 759540 509
707997 181713 509
608269 638305 509
546179 76793 470
14229 672001 509
926124 648295 525
988853 168749 525
816602 451227 509
675429 894712 525
949727 431918 525
330223 367578 441
289616 819375 509
782657 211599 509
405320 88730 443
298204 227892 443
957225 360421 525
660234 172029 509
618801 378390 470
839418 110755 525
888274 346660 525
367648 606096 470
985079 678047 525
205565 975001 525
503575 149751 449
527380 750302 509
533371 607179 452
482751 351547 449
61200 873631 525
559618 129500 470
413883 177041 449
849243 906052 445
852675 364552 525
668764 839183 525
616447 386335 470
996897 651512 525
990153 561558 525
66415 737315 509
26521 640794 509
393417 991933 525
371492 776706 509
746354 14350 509
