764289 275853
855388 269127
505949 422011
722277 611819
203286 407009
520515 294549
135111 397774
377560 966931
860937 133734
31344 512882
293769 36697
974407 375786
299926 652637
858214 557319
91736 981610
219148 298731
109934 626281
106645 619336
467054 689207
128979 971547
339385 661759
912559 844275
675003 749984
76327 514220
129562 514917
821481 154929
219367 19667
233327 809264
25605 870330
132943 364957
485065 521961
924030 152213
475984 64212
265449 483606
435215 256753
810327 796883
522281 365393
705824 710136
450066 819510
127442 572169
437640 44823
832733 465662
541949 421674
881655 129603
848898 910351
618063 561615
839486 457383
552146 463907
170736 379655
661458 945061
713050 155110
410694 258644
770073 209638
789076 730478
486511 557895
173772 951006
799232 723963
909919 557584
735007 893725
413696 540694
435176 754438
62838 690360
783809 308939
385542 852548
554894 113206
116200 540952
963771 582192
565847 33838
577272 336432
333479 447879
225059 327683
88325 230611
184412 811360
615187 510461
535741 264525
667317 691607
569741 550373
805100 270088
504122 855373
822877 90268
524880 211242
111749 43277
86057 431120
654248 775320
720962 869255
59117 690420
263866 12628
137154 4662
440184 750957
198186 7830
491358 606608
601708 272091
671926 629936
317180 213663
928786 428074
104311 392634
699380 592048
674322 997697
88249 675353
341580 825296
142210 12480
580459 659960
268910 911031
365155 989034
527559 693696
441519 917977
427765 651636
490914 16147
673627 924562
811094 487616
457867 232565
93782 415690
26298 239277
274824 147774
286133 681549
691596 702003
648621 37522
793344 726480
679027 259715
586232 655181
697544 311445
773367 488609
907223 336074
769294 986688
27290 476946
361504 482908
8735 861520
80704 672805
302296 881055
889210 426318
942394 383625
283016 87679
568775 35856
625013 793174
908764 421224
817673 213529
538236 973145
977422 856933
738375 444453
994399 806019
307126 508749
201166 570873
184482 224855
172050 167932
714782 430178
189719 109727
480617 519307
337247 876082
48291 700815
844513 103845
199467 544557
693835 453195
822274 749484
617675 629494
416813 177052
190132 335420
800353 122836
299993 152718
668268 370604
198929 778266
837605 448483
880955 121769
641823 431750
851756 932346
354924 686291
337442 5783
951222 602159
477434 93148
100527 190989
926126 363890
759845 577683
279836 300595
772646 875852
177237 306804
25524 617902
981711 467867
341319 446726
546071 769863
353463 911727
39776 658746
313214 750834
185971 642849
577882 928229
423268 847852
591889 363029
119209 75849
207909 332632
678511 689782
631673 771019
915897 15728
160480 611385
267282 848710
805343 491167
93059 837020
570392 158445
154686 6506
303086 233351
558659 138219
80462 174819
800842 9931
966479 245873
11356 93604
301154 159166
190402 345093
207323 262475
705265 214203
297170 484342
475826 556796
323688 716448
518720 333345
958263 715257
693401 84576
867302 420527
734136 352336
550900 471484
554245 51574
897500 406898
972123 528458
547817 164346
75265 162824
455912 287918
824889 278590
682323 28948
258734 473298
734478 430957
13286 79299
394669 134180
481049 129891
341483 404332
833289 795804
821513 37959
255465 950854
607072 424451
264105 769363
424472 945647
307864 912247
450574 538972
