975482 240308 525
566966 720330 509
58020 481506 449
397299 753161 509
27439 853146 525
447507 679793 509
183303 579626 470
259522 687909 509
989357 959324 458
840792 380387 525
851719 450511 525
229454 445905 449
267297 534147 470
694982 567898 509
468969 166378 449
628045 21480 509
668791 117870 509
288947 876025 525
485366 924809 525
258600 562978 470
857267 352192 525
792493 492341 509
73481 194750 383
883410 707441 525
641513 278510 509
28450 985889 525
519617 673185 509
483087 636978 509
306958 333397 384
133005 771798 509
202782 477961 449
658892 631849 429
835056 465297 509
261512 317716 407
752497 503751 509
318647 647090 509
193941 352747 443
591075 443727 470
441893 683356 509
712307 8822 509
114642 845387 525
448638 522587 470
657427 644544 429
424306 40720 449
830875 833682 419
877333 169035 525
310864 296652 371
441306 244274 449
879902 731323 525
700818 482310 509
743264 738269 424
117213 581324 470
41949 420276 449
208765 734407 509
672937 229882 509
699024 592459 509
701080 779261 504
737504 196781 509
735546 336111 509
249892 871773 525
34558 649767 509
395348 155030 443
216838 907963 525
779971 635071 504
873471 636928 525
715497 219113 509
568392 649358 509
18602 274630 443
714236 737001 424
315634 33329 443
37324 767008 509
630958 932383 525
414509 828692 509
474478 467657 413
425868 917708 525
714923 349831 509
635241 715780 504
173299 165662 352
14119 42328 324
395817 363696 436
662472 702154 442
381439 525351 470
550736 173388 470
110276 251035 443
642130 866942 525
809184 443636 509
291101 448729 449
225037 236942 443
915510 66216 525
442789 614402 470
567866 515482 452
956231 750663 525
558909 922187 525
759202 496211 509
50576 554429 470
949870 154412 525
76845 376839 443
352802 820116 509
239866 857562 525
495840 372628 449
689550 216115 509
492127 722457 509
989528 669366 525
676457 775315 504
389039 766520 509
324878 115503 443
865105 601984 525
584800 316405 470
610495 447845 470
168695 145768 383
486926 325555 449
473306 784682 509
405037 116654 443
635450 674956 442
249664 278267 407
427557 102754 449
158262 862871 525
558760 951116 525
438173 731718 509
456061 991178 525
427512 297315 449
38578 985146 525
783398 637281 504
281158 447897 449
302675 317036 384
936891 895595 476
723301 319220 509
571373 665380 509
161350 706441 509
857294 963284 507
725552 504604 509
877491 704362 525
706112 553191 509
371605 47739 443
824157 137240 509
503464 737545 509
292661 12731 443
36290 372505 443
217069 822740 509
793189 396969 509
887348 478290 525
536616 641829 509
833162 774773 468
88943 504049 449
807607 18510 509
934352 937456 414
986634 519749 525
780051 620913 509
139766 39409 354
765095 52092 509
524957 47853 470
156990 437056 449
489112 244614 449
898396 227539 525
854885 256760 525
377471 149406 443
157323 69148 383
366819 66580 443
958783 754053 525
209581 19906 383
804374 124445 509
984794 797855 525
320878 624932 470
826855 689993 504
201035 698755 509
292954 163150 443
237984 840436 525
936637 33560 525
513490 711477 509
478922 821355 509
497956 693333 509
614031 538820 452
767605 9169 509
765263 805668 468
506743 83047 449
227392 556184 470
290752 274719 389
446754 875902 525
317067 420206 449
787030 778314 437
637527 218633 509
73774 605134 470
566963 21037 470
727437 823507 468
838910 427791 525
785320 70738 509
707230 925334 525
666006 636288 442
532699 83390 470
882823 10302 525
17426 503062 449
187627 854136 525
652556 611129 509
109765 243377 443
346434 245737 441
945288 286195 525
302868 54536 443
77117 503531 449
135362 537892 470
136274 175888 383
156293 555431 470
911761 717308 525
823467 172476 509
652 658851 509
349216 23398 443
363416 675093 509
766603 392463 509
297363 317983 384
10659 110630 354
341322 657451 509
837522 838469 525
583892 994612 525
510007 95588 449
525481 55671 470
988266 403734 525
710205 297596 509
730244 558565 509
222217 836003 509
460883 502617 444
230172 886208 525
240337 317049 407
497604 682615 509
418215 544053 470
65952 422106 449
142595 174689 383
613804 636316 509
814512 954928 525
550630 66185 470
466999 455677 444
366971 234999 441
529095 407188 470
626307 821122 509
890553 479400 525
603874 247457 470
15079 622708 470
115353 203980 383
815013 721580 468
4432 866795 525
97130 270516 443
119259 440003 449
644676 225079 509
764173 153519 509
139288 999499 525
118749 567424 470
965667 614817 525
795125 101001 509
569245 747443 509
509734 473761 426
800857 768763 468
225514 454181 449
342705 937902 525
974387 288581 525
590175 806818 509
877054 819397 525
227629 304293 443
418633 753589 509
156795 259167 443
618580 917585 525
198256 493637 449
70763 802309 509
764622 187941 509
36044 69431 340
865696 734200 525
526504 939148 525
814601 184451 509
974624 992866 427
992250 285293 525
673528 217506 509
225580 282507 443
993083 66957 525
451340 590562 470
431437 509225 444
374800 774281 509
