975482 240308
566966 720330
58020 481506
397299 753161
27439 853146
447507 679793
183303 579626
259522 687909
989357 959324
840792 380387
851719 450511
229454 445905
267297 534147
694982 567898
468969 166378
628045 21480
668791 117870
288947 876025
485366 924809
258600 562978
857267 352192
792493 492341
73481 194750
883410 707441
641513 278510
28450 985889
519617 673185
483087 636978
306958 333397
133005 771798
202782 477961
658892 631849
835056 465297
261512 317716
752497 503751
318647 647090
193941 352747
591075 443727
441893 683356
712307 8822
114642 845387
448638 522587
657427 644544
424306 40720
830875 833682
877333 169035
310864 296652
441306 244274
879902 731323
700818 482310
743264 738269
117213 581324
41949 420276
208765 734407
672937 229882
699024 592459
701080 779261
737504 196781
735546 336111
249892 871773
34558 649767
395348 155030
216838 907963
779971 635071
873471 636928
715497 219113
568392 649358
18602 274630
714236 737001
315634 33329
37324 767008
630958 932383
414509 828692
474478 467657
425868 917708
714923 349831
635241 715780
173299 165662
14119 42328
395817 363696
662472 702154
381439 525351
550736 173388
110276 251035
642130 866942
809184 443636
291101 448729
225037 236942
915510 66216
442789 614402
567866 515482
956231 750663
558909 922187
759202 496211
50576 554429
949870 154412
76845 376839
352802 820116
239866 857562
495840 372628
689550 216115
492127 722457
989528 669366
676457 775315
389039 766520
324878 115503
865105 601984
584800 316405
610495 447845
168695 145768
486926 325555
473306 784682
405037 116654
635450 674956
249664 278267
427557 102754
158262 862871
558760 951116
438173 731718
456061 991178
427512 297315
38578 985146
783398 637281
281158 447897
302675 317036
936891 895595
723301 319220
571373 665380
161350 706441
857294 963284
725552 504604
877491 704362
706112 553191
371605 47739
824157 137240
503464 737545
292661 12731
36290 372505
217069 822740
793189 396969
887348 478290
536616 641829
833162 774773
88943 504049
807607 18510
934352 937456
986634 519749
780051 620913
139766 39409
765095 52092
524957 47853
156990 437056
489112 244614
898396 227539
854885 256760
377471 149406
157323 69148
366819 66580
958783 754053
209581 19906
804374 124445
984794 797855
320878 624932
826855 689993
201035 698755
292954 163150
237984 840436
936637 33560
513490 711477
478922 821355
497956 693333
614031 538820
767605 9169
765263 805668
506743 83047
227392 556184
290752 274719
446754 875902
317067 420206
787030 778314
637527 218633
73774 605134
566963 21037
727437 823507
838910 427791
785320 70738
707230 925334
666006 636288
532699 83390
882823 10302
17426 503062
187627 854136
652556 611129
109765 243377
346434 245737
945288 286195
302868 54536
77117 503531
135362 537892
136274 175888
156293 555431
911761 717308
823467 172476
652 658851
349216 23398
363416 675093
766603 392463
297363 317983
10659 110630
341322 657451
837522 838469
583892 994612
510007 95588
525481 55671
988266 403734
710205 297596
730244 558565
222217 836003
460883 502617
230172 886208
240337 317049
497604 682615
418215 544053
65952 422106
142595 174689
613804 636316
814512 954928
550630 66185
466999 455677
366971 234999
529095 407188
626307 821122
890553 479400
603874 247457
15079 622708
115353 203980
815013 721580
4432 866795
97130 270516
119259 440003
644676 225079
764173 153519
139288 999499
118749 567424
965667 614817
795125 101001
569245 747443
509734 473761
800857 768763
225514 454181
342705 937902
974387 288581
590175 806818
877054 819397
227629 304293
418633 753589
156795 259167
618580 917585
198256 493637
70763 802309
764622 187941
36044 69431
865696 734200
526504 939148
814601 184451
974624 992866
992250 285293
673528 217506
225580 282507
993083 66957
451340 590562
431437 509225
374800 774281
