205798 24197
115013 696995
658923 784906
156745 608895
18255 253429
712394 194335
285299 743434
695198 653963
32257 658806
60176 609994
408358 496964
560276 420335
439536 550234
12199 706748
327269 37552
847627 297666
798337 480294
512914 155228
113811 424257
374261 291188
345255 91980
497208 746239
889344 905361
82432 181849
644814 725957
540304 133633
972448 63134
71735 344958
171146 749913
656156 742159
32789 183720
446837 825077
649687 790143
896630 965758
635698 237058
488392 433734
66750 558403
705969 812118
555395 109524
913445 71797
946390 191989
207425 126516
863421 883744
931876 503440
241990 272358
800928 269059
528758 172535
896676 182332
63048 997094
720172 236606
147437 162653
316269 452355
70637 201152
120005 364149
211262 77096
159135 740351
481612 732172
893218 405399
596568 265801
625978 749673
398013 353134
952595 793799
398406 583870
619773 71990
358543 603256
91465 386462
250215 839493
644961 923633
806586 775788
651397 670238
759161 404777
737764 437871
631499 937162
671162 454405
579209 689222
727555 676603
101847 450441
240727 946124
309603 581382
159409 970907
100107 506158
119878 561405
774823 655944
798309 294740
521164 962172
318899 908489
693191 4743
305517 334316
718255 460196
14366 279262
935192 635835
1915 961717
923725 121115
769306 158565
545979 142150
485556 640681
790894 596184
607712 473208
730926 666875
131849 313150
965476 61392
580302 571745
233085 682493
976496 357214
378213 232688
813217 186693
631858 495505
273522 926537
92148 976624
194286 377616
522515 761686
227831 776485
231472 982913
315194 173286
782713 523678
129782 836491
976630 792732
365120 154673
300678 796406
553543 844358
230171 896409
730563 734113
287291 730513
542917 206777
87265 884180
143849 188445
849804 30980
827645 919012
916743 973084
258216 755237
739029 679616
320403 724545
984299 197575
593708 949933
585593 285877
152959 979400
992907 118484
358835 913652
289888 330582
289254 949216
503437 114095
963700 321539
47234 932700
484327 565844
412411 867446
723151 300912
899978 940604
960746 579202
306734 46896
615022 787384
344826 458288
163479 374732
660831 783716
94014 559350
608712 403188
533772 50694
421435 91533
346796 175218
317327 751528
231856 218539
420013 493896
707622 36420
994661 291122
480050 982244
42466 930099
728032 695631
752292 737725
576415 697760
552924 699349
463010 354881
639296 471602
754368 797894
417287 844440
180108 106736
715165 98082
335995 23085
494951 452942
27840 890050
401376 636717
461963 73918
383772 264019
319970 275061
988837 272099
168679 373875
298574 341272
607434 89659
218960 199490
756147 577347
604610 848182
828208 534503
694460 891871
497096 310545
304101 964553
609420 636903
234027 359877
617940 77356
347815 891251
318533 79947
994548 734035
110910 546085
107790 663982
62483 787097
343803 298644
146391 405848
563827 852573
408926 170924
850521 400772
137981 583806
993381 938661
403999 492011
765642 862242
510022 770100
648128 875026
763761 775448
903193 467230
743170 7627
453713 111527
140370 70915
455697 899514
79600 991126
123634 630254
374250 722062
839648 973978
240521 473058
758432 458842
60093 711395
575351 304390
242232 240189
305079 744265
429510 33988
896471 962329
720821 626684
436665 467658
568308 191285
832004 592661
148000 380780
