1 1
999999 999999
1000 900
2500 4000
500 250
999 998
1 50
300 600
600 300
400 4000
111 222
333 999
6000 9000
2000 10000
10000 10001
10000 10000
10001 10001
12345 23456
54321 67890
1 10000
10000 1
5000 10000
10000 500
501 10000
17611 596853
8271 267459
15455 519501
99740 471325
61898 683244
49756 827036
27519 98418
63944 29724
51093 453789
79618 799308
276 729633
58377 279267
94573 840775
29984 619869
13399 945215
41606 32075
2925 26681
85137 567712
1206 984769
49965 719830
28390 442621
95138 30451
69157 232460
57394 984787
64987 579715
30550 362493
30260 709727
28676 797911
60241 998500
37982 971512
2816 436396
72935 966984
84186 104857
24367 659924
94848 901719
38848 126762
97405 348856
94566 745738
65640 981929
55326 532380
87858 199071
39763 297962
77015 925346
65452 887302
66228 412461
77201 894737
4525 503554
31816 779858
52990 434439
87129 181411
48119 575457
92148 813524
88406 774075
49113 90667
57535 696000
66640 113174
21456 546243
51544 388521
64185 768360
3876 492117
5699 323516
92193 889508
80584 621998
75782 412719
84824 178624
22097 526635
29745 12899
26151 565829
71871 243454
53012 538728
45065 998734
75732 370434
60179 953947
35294 691236
71826 638524
95603 5986
50290 821722
97059 537395
16940 543873
73578 215466
55848 995852
7356 504471
47806 597687
72666 209546
66154 433481
63560 852860
46765 434555
45361 1661
70579 566345
81722 824646
80275 347222
60050 628993
3666 843652
30094 666234
23227 577509
76606 189565
12006 837223
72224 835817
33461 34035
88226 73875
10909 910245
2187 475003
1908 790778
99036 294856
32710 281691
14350 836016
81894 193577
45144 304385
9111 175605
20922 267613
69124 998199
22039 688554
35771 679689
93269 308798
59598 736756
42205 520611
62098 119737
3097 327160
50666 360020
55170 834879
24646 270973
14255 265770
95702 534895
27405 635068
56577 856728
2728 236321
2341 416615
19197 37042
94219 168010
58414 738832
66362 711118
55923 571161
28914 661412
91101 541693
59093 234037
68668 680008
4023 414080
88460 603818
42106 691875
82699 447007
7705 773273
39138 131788
27804 918064
6218 321269
9270 900217
10019 325439
39043 779974
20736 436388
74047 264616
17090 8892
73494 921402
4969 619272
28520 944570
74747 483238
22481 868129
92277 653223
66699 39241
49541 210142
45472 103835
26969 601235
88362 940117
56747 620137
25443 516267
13687 983515
87288 409008
38806 528594
65509 18035
42643 641863
52733 943381
36877 18971
20573 210609
42957 850540
73838 820720
17713 355567
56261 223377
34935 707217
12636 878393
49706 977469
71778 360552
90060 560285
63504 805255
69798 246038
8561 760705
5295 88793
17434 177937
21830 955239
70544 223313
35128 795991
43546 629364
66307 881991
33461 385989
44413 356814
14930 305361
30826 909555
79165 817406
93730 930364
64067 141920
76016 577944
13667 336305
5129 426349
