375031 36858
885521 146500
571496 966876
467355 17629
923652 965068
568790 315288
541439 908683
53728 967740
128690 78793
442577 653338
147431 357302
656615 247645
533339 246183
619009 667710
984622 432222
424326 743269
826479 364641
335292 292784
819731 352772
272648 308023
22226 26286
65344 161314
878433 270556
51670 767332
669166 866730
904370 948077
909653 886774
577183 722116
950341 970608
362835 141901
599550 6915
818167 631837
247876 383989
972507 744677
96152 620626
38501 296853
125848 77671
876149 56566
538817 943449
770368 789189
166435 118881
324053 752598
941006 792693
974052 340595
983238 820617
953186 497648
283776 854530
357181 628520
388257 373811
7975 626617
905315 41611
537009 269593
735838 213403
883071 154826
815308 289903
939982 384301
221448 819082
373708 981986
57933 461210
443425 338490
812219 990717
314005 365297
746338 546633
12077 76192
703060 48609
830411 738811
275989 174084
985210 992798
659227 192304
113072 522519
365565 254344
873487 1834
484428 172047
304672 209030
159302 245069
806224 905334
674348 562486
506789 545342
779197 632163
28466 674259
997626 84914
407012 47003
213887 165177
336817 438915
657315 113987
114856 58179
268240 830862
154283 584349
945565 538602
953469 499542
183445 902925
261050 905979
444571 488282
717896 111393
701409 531768
768299 915546
858173 6084
559614 744805
351172 300876
751531 630452
681100 684302
934534 686597
734252 608886
384924 56330
859075 325325
569666 657043
671485 341787
750457 388429
104809 606142
988964 658505
83369 25352
507665 487603
25980 489059
256649 988912
759891 377010
196372 235545
972426 906614
493445 181981
526221 434462
74793 403882
209177 349588
61010 710457
19555 844271
469410 855386
103470 367331
628663 175025
663501 921333
169582 127123
632144 916800
944431 164541
446387 587759
316312 225461
371264 261089
409995 578254
433238 234330
374360 661085
531773 56866
3449 20199
459960 777879
734049 947450
261031 864371
143820 540401
936937 105016
724421 851820
534013 985209
114695 591741
921570 847940
750508 275366
165647 210731
822295 713788
609089 285610
784107 72134
952253 453515
397563 306880
769153 988874
689869 53370
461539 126838
731094 966115
16653 90444
519512 890360
927466 850824
772028 829808
557648 519513
131056 703805
624486 825149
822634 955583
586564 837921
691249 365134
302759 409143
824038 571836
412719 377192
599444 796164
526939 451548
750286 311045
241764 614950
4701 258739
326097 476379
473783 941058
816577 846041
140768 153207
359676 566710
284758 362808
210306 601828
444201 548819
837912 108227
432946 307232
150789 275552
676356 159500
330982 858366
710219 617600
204460 97548
517684 483012
557124 46659
727855 959892
365229 502373
8398 751190
637776 230823
596562 820995
912406 410464
308359 94842
551357 211799
529313 354708
224122 814540
574703 631421
480725 313352
478190 951667
207788 672711
684051 396447
736437 613977
882154 753411
679299 781975
911891 81267
93171 155849
872229 652895
39763 127957
393839 895111
849624 128204
15102 652747
31842 950029
741381 973957
546749 698997
836776 891329
448096 206694
698309 995298
934204 930410
