638475 481079 509
143775 352399 443
215222 485499 449
779254 481362 509
39165 197148 383
546279 547936 452
49231 624052 470
482316 44884 449
139726 582523 470
150393 682814 509
293006 951104 525
129361 551093 470
494528 720050 509
229432 203956 386
156048 621136 470
83682 600180 470
7536 469905 449
397655 600686 470
242933 963634 525
136192 502135 449
806370 899795 525
574303 296988 470
545210 908182 525
36535 217190 386
222627 724681 509
319705 753266 509
446306 72953 449
845372 914132 476
922266 574035 525
156674 745605 509
799510 745010 468
213825 232472 443
247837 280631 407
244913 532138 470
159165 585133 470
852202 714441 525
523196 380533 470
33235 40967 324
965226 739453 525
425020 193937 449
671217 268320 509
122286 175113 383
581462 487411 470
553977 227698 470
678213 172860 509
7454 291863 443
978075 18919 525
604792 679103 509
296263 53691 443
725254 274090 509
991263 685700 525
627326 65449 509
487017 587577 470
905927 749013 525
616765 124075 470
935596 945156 507
373326 906216 525
13935 897794 525
534704 864321 525
969984 112760 525
538636 705843 509
809162 91395 509
922765 834073 525
888193 917610 476
623845 606332 447
867039 759542 525
427748 192649 449
174286 181609 365
437975 991591 525
616155 704132 509
817299 925466 525
114680 783410 509
109885 279251 443
601457 826008 509
849670 153097 525
2558 673470 509
258719 812636 509
614555 827260 509
537378 631547 509
892501 986942 507
408469 340269 441
160300 439292 449
335376 686466 509
25988 637951 509
950689 85304 525
521226 131484 470
386320 621491 470
406598 580803 470
123442 806712 509
195213 355270 443
437711 100138 449
729525 144234 509
581938 473640 470
141479 129730 344
2208 807427 509
264698 708343 509
166502 903763 525
937275 231321 525
643917 970387 525
950272 77700 525
644364 657164 429
17178 693508 509
219819 88080 386
404397 664364 509
165887 349032 443
226003 98859 386
581661 346452 470
784236 217591 509
572646 644029 509
634742 282555 509
311248 340034 384
870880 933119 476
520750 88714 470
764015 586054 509
340036 33699 443
304480 786209 509
301583 118908 443
726510 770134 468
601449 246036 470
981569 388783 525
666877 984400 525
215406 419043 449
265995 101896 443
57663 631968 509
871056 283613 525
329527 669807 509
58260 743829 509
108336 392504 443
887558 827859 525
865072 541180 525
543222 977855 525
656219 722061 504
177681 73132 383
883019 425365 525
64820 204909 383
701227 70419 509
998126 793778 525
166163 854352 525
965840 539090 525
186282 424391 449
499821 745104 509
80881 794944 509
572948 329671 470
641553 559456 509
706236 920540 525
125575 692931 509
513611 611403 452
881917 574468 525
486748 171371 449
146889 306134 443
45631 332695 443
317728 340066 384
739709 875648 525
252092 873653 525
122148 228451 386
958439 513840 525
592482 563625 434
938683 418819 525
995765 937688 507
826303 84051 509
807585 846342 525
632583 930917 525
340572 372226 441
673805 788000 504
858559 210207 525
200578 634995 509
940072 612073 525
536593 757118 509
831442 252833 509
46389 595267 470
90653 152250 375
804704 572774 509
377008 618169 470
482517 676517 509
906338 869484 445
313063 643877 509
807921 440916 509
451820 325346 449
422870 564837 470
402122 294971 441
396471 740600 509
244396 401488 441
572582 467261 470
47245 463670 449
653500 809158 504
556674 952169 525
114881 488663 449
602543 282260 470
667514 296480 509
941783 548525 525
748971 840257 525
501628 666675 509
568667 918904 525
292859 693788 509
391082 493395 449
977760 903313 507
447833 115834 449
435291 767969 509
288692 301761 371
114206 866149 525
962043 769601 525
517731 965398 525
685853 971420 525
429575 36367 449
150894 455600 449
555889 446610 470
969738 961358 414
563926 659131 509
691372 759241 504
687466 864457 525
841361 90502 525
302306 859388 525
560570 308497 470
433044 221116 449
105078 595982 470
846291 887730 445
769211 601724 509
694760 281573 509
673482 243929 509
937127 688194 525
603638 970015 525
748875 681451 504
847059 584083 525
857004 962535 507
899109 572384 525
440971 963890 525
611657 895102 525
484179 358355 449
761663 544591 509
412278 670128 509
361519 260879 441
517000 898015 525
605848 932986 525
803977 657579 504
29446 587173 470
614502 678347 509
537866 401686 470
878471 688915 525
705869 50311 509
732949 628939 504
739583 45560 509
265704 117583 443
697902 973429 525
127124 47287 354
875939 315822 525
325895 240305 407
897922 788755 525
909635 105084 525
261505 507855 449
82399 531808 470
587749 160616 470
379428 300286 441
397637 566566 470
298125 130581 443
20541 378696 443
205184 91159 383
102678 662200 509
