66780 881854 525
790493 756290 468
765781 303582 509
360949 624639 470
347571 182220 443
635117 216426 509
535181 366113 470
304150 925325 525
65993 852016 525
782441 275100 509
947211 295602 525
242483 307735 407
729484 20013 509
685871 749079 504
603077 137244 470
945743 387580 525
409983 595770 470
587685 781988 509
378021 588130 470
940818 340532 525
72565 200557 383
86182 412570 449
306994 991214 525
373906 61629 443
59377 464348 449
300912 93984 443
512477 277202 470
922235 590124 525
577997 490787 470
559262 495477 470
326357 243986 407
719413 919646 525
564612 786579 509
733418 844661 525
552962 521991 452
694030 997689 525
481131 186754 449
981367 614036 525
670889 908237 525
876239 551751 525
439461 500008 444
262630 398532 441
768564 876890 525
954236 641912 525
356121 328521 441
515263 708512 509
252970 233229 381
265433 640673 509
934847 442289 525
473423 794852 509
816232 240039 509
319440 159624 443
269717 285147 407
664320 811333 504
89780 133842 354
328639 513136 470
588713 554907 434
866497 926566 476
638534 177258 509
473885 36017 449
594855 224037 470
473196 666977 509
283563 507329 449
403891 118090 443
310988 365878 441
131349 491028 449
674812 703537 442
842957 130796 525
780347 886876 525
895454 257053 525
258272 279437 407
865891 51844 525
190633 525288 470
970042 351958 525
890627 395012 525
334248 278080 389
955739 769530 525
683346 60814 509
718807 179081 509
703625 760499 504
408984 403523 405
649372 699945 442
342332 181492 443
491111 678151 509
4331 703716 509
207323 64119 383
82593 390216 443
605224 797511 509
679384 486285 509
973071 45641 525
189723 664358 509
745572 905806 525
922300 969327 507
621132 685655 509
130652 305696 443
5041 963283 525
715896 211136 509
438642 287417 449
255298 870958 525
609006 585172 403
117309 62492 354
51581 797330 509
251928 36403 443
323043 992032 525
515129 604674 452
441647 515449 470
499864 82883 449
328524 93497 443
761285 576269 509
621295 276917 470
889697 399508 525
489966 743637 509
909129 72979 525
718929 726388 411
41088 123290 354
616204 939194 525
9419 464793 449
11505 346612 443
905151 739964 525
459771 63865 449
954153 764967 525
1880 288173 443
558802 40848 470
541455 594263 452
87622 450034 449
323710 1696 443
784010 743677 468
406405 798357 509
120357 331220 443
263458 55266 443
67830 987483 525
880843 336851 525
501156 189894 449
612446 353513 470
953499 686133 525
863633 513758 525
633971 476476 509
385251 906714 525
730652 201110 509
687193 595733 509
584105 392980 470
485224 407657 449
922311 146043 525
832130 199923 509
807266 494198 509
872486 427436 525
885223 608341 525
877836 966833 507
655243 673409 442
870909 667466 525
285376 951046 525
437264 659132 509
152811 381074 443
297018 396052 441
189345 339727 443
493483 688837 509
546130 346790 470
598997 894186 525
824927 142349 509
500577 707460 509
274162 201092 443
670851 990135 525
122608 52212 354
221045 330018 443
674213 186246 509
550367 547955 333
681225 384887 509
720367 265405 509
942837 938170 507
927447 740989 525
112089 827033 509
104870 907984 525
406998 337495 441
512990 543858 439
12895 278563 443
389794 642060 509
636839 998050 525
897482 677247 525
772288 436584 509
175004 355203 443
789332 356509 509
625135 14630 470
536064 170823 470
996526 842912 507
527325 360509 470
786448 110109 509
750952 557602 509
970955 196859 525
897756 71295 525
870694 805151 525
49813 823935 509
696827 199651 509
980733 933961 507
843805 411368 525
254081 831543 509
991870 115575 525
168558 975074 525
217804 155072 386
756947 549272 509
397638 373565 436
553112 438191 470
484168 993233 525
776917 287312 509
667438 636001 442
234804 586794 470
866572 137211 525
587974 717245 509
937677 501275 525
645170 936964 525
617363 754766 509
436353 421402 418
868765 998391 507
345569 724043 509
928616 293502 525
382162 348517 423
542775 840056 525
521865 815604 509
257866 14967 443
117650 635270 509
7374 18746 279
969283 373225 525
108084 387462 443
488865 249853 449
63932 160874 383
240566 849205 525
4801 235219 443
397287 390469 405
117461 645738 509
877317 490514 525
332382 686893 509
971418 575731 525
835344 396680 509
788817 108416 509
861923 769212 525
800666 133798 509
213440 529437 470
22088 600899 470
583883 233199 470
427807 684866 509
607376 626637 509
724716 528812 509
560068 534079 452
662615 889004 525
31264 738652 509
993480 544195 525
168778 363116 443
547210 313331 470
824940 372929 509
172916 685440 509
291681 556064 470
540994 691843 509
957356 732411 525
858801 728045 525
732140 123795 509
374561 3217 443
666913 815520 504
231135 967291 525
632468 122075 509
877290 881592 401
152038 507451 449
427489 693873 509
681498 57105 509
888696 26562 525
414626 301835 449
813417 977966 525
9348 588287 470
