6018 6961 262
766 4422 238
2100 5071 238
622 4225 238
5120 865 238
5802 7873 262
1412 3529 217
8937 8450 216
1389 9950 262
6077 3949 236
3292 6007 238
2476 3441 217
6101 5115 236
6652 1138 262
8854 15 262
1011 8484 262
8636 469 262
2445 4086 238
3215 3497 181
4434 9508 262
9820 5361 262
7571 3007 262
7756 5836 262
13 9854 262
5676 6460 262
3239 780 217
9754 6645 260
3005 2792 217
326 3656 217
3734 5520 215
7870 229 262
4209 9934 262
4146 9655 262
1001 7062 262
6934 9760 260
4399 9941 262
1872 6013 238
5477 3486 238
4670 5473 210
1441 9790 262
713 1351 182
5994 126 238
8225 3458 262
650 240 145
496 1129 179
9857 5857 262
9329 7299 260
3419 117 217
541 1984 182
6663 7085 257
1385 8509 262
7994 5319 262
5639 8896 262
1349 9413 262
2111 5531 238
9048 5015 262
9341 4993 262
5593 8192 262
9880 114 262
1876 2968 217
6870 6082 262
7008 2644 262
5222 6899 262
2666 4045 238
6658 3618 262
9959 9057 260
2600 9895 262
450 4601 238
4648 5722 236
7310 9503 260
71 8271 262
2830 7258 262
681 7233 262
7544 1801 262
9561 6650 260
4994 8810 262
278 7799 262
7690 5017 262
5566 3161 238
4154 286 238
8486 3332 262
4747 1568 238
3883 1249 238
8910 1472 262
3330 6302 262
2717 1480 209
6275 936 262
6212 24 262
9141 7608 252
2801 4184 238
2738 2517 191
3637 8011 262
8036 742 262
6410 5152 262
626 6618 262
1556 4178 238
5639 3382 238
884 5072 238
7567 9073 252
4562 7999 262
4273 3175 238
7394 7740 239
1557 7241 262
8123 2296 262
9448 3413 262
8301 112 262
7265 6509 257
1629 7961 262
6925 4981 262
9863 1289 262
1820 8926 262
673 5330 238
4601 5212 210
4091 7864 262
1848 9463 262
6303 7925 257
8164 2437 262
5601 7927 262
5269 133 238
1430 8122 262
9142 7159 252
2632 4644 238
765 9949 262
9868 3217 262
686 9101 262
8796 2484 262
1598 1117 182
2050 737 182
9923 7572 260
1463 2186 180
7751 4439 262
805 3165 217
1889 897 182
2144 701 182
9313 6650 260
4048 5914 236
3213 1488 217
5889 276 238
8107 9468 260
4760 897 238
659 387 145
9218 3339 262
9002 8649 247
8549 6150 262
8436 6215 257
762 9628 262
4166 5978 236
850 9890 262
3143 7422 262
451 3775 238
9739 1998 262
9282 4229 262
3720 7888 262
6696 430 262
4557 3176 238
2227 4660 238
3064 2036 217
9189 2619 262
272 7248 262
1938 8647 262
8492 166 262
7609 7159 239
3399 3696 207
6705 2056 262
2722 4303 238
4797 9337 262
374 306 144
841 9486 262
5076 611 238
2811 4009 238
170 436 144
6301 372 262
9942 5438 262
6330 9709 260
7068 4322 262
6122 1927 238
6349 9076 257
7535 3791 262
3199 6595 262
3692 2487 217
9630 9485 198
6665 2566 262
5234 6633 262
4516 23 238
8900 9026 247
2446 1141 183
4407 4255 215
1644 7975 262
8456 6201 257
3571 5108 238
3052 3243 199
4556 7554 262
7124 4640 262
6779 9707 260
3870 2839 238
2183 7083 262
1999 4667 238
8645 6825 257
6249 6091 262
4243 2460 238
3996 5587 236
3175 5588 238
4675 9171 262
967 303 179
3151 1897 217
8741 8077 234
2024 575 182
4335 6601 262
9355 8119 260
2467 3675 217
7618 3549 262
2539 1406 209
8556 8379 203
8672 8184 234
3757 7377 262
9451 9394 154
9139 6533 257
2951 7775 262
9781 3573 262
8339 8892 234
8087 3101 262
8251 1964 262
9939 5467 262
5272 1647 238
7759 8336 252
6965 7973 252
9608 354 262
1724 1174 180
94 8616 262
828 1218 182
4793 315 238
5864 9680 262
137 6262 262
6435 9760 260
3588 890 217
6409 8423 257
8888 2408 262
5207 8357 262
6422 4507 262
7363 5659 262
176 412 144
171 9085 262
7529 9909 260
7023 3334 262
8953 7572 252
861 5556 238
4879 8855 262
52 6042 238
2156 5003 238
1685 3937 238
