6018 6961
766 4422
2100 5071
622 4225
5120 865
5802 7873
1412 3529
8937 8450
1389 9950
6077 3949
3292 6007
2476 3441
6101 5115
6652 1138
8854 15
1011 8484
8636 469
2445 4086
3215 3497
4434 9508
9820 5361
7571 3007
7756 5836
13 9854
5676 6460
3239 780
9754 6645
3005 2792
326 3656
3734 5520
7870 229
4209 9934
4146 9655
1001 7062
6934 9760
4399 9941
1872 6013
5477 3486
4670 5473
1441 9790
713 1351
5994 126
8225 3458
650 240
496 1129
9857 5857
9329 7299
3419 117
541 1984
6663 7085
1385 8509
7994 5319
5639 8896
1349 9413
2111 5531
9048 5015
9341 4993
5593 8192
9880 114
1876 2968
6870 6082
7008 2644
5222 6899
2666 4045
6658 3618
9959 9057
2600 9895
450 4601
4648 5722
7310 9503
71 8271
2830 7258
681 7233
7544 1801
9561 6650
4994 8810
278 7799
7690 5017
5566 3161
4154 286
8486 3332
4747 1568
3883 1249
8910 1472
3330 6302
2717 1480
6275 936
6212 24
9141 7608
2801 4184
2738 2517
3637 8011
8036 742
6410 5152
626 6618
1556 4178
5639 3382
884 5072
7567 9073
4562 7999
4273 3175
7394 7740
1557 7241
8123 2296
9448 3413
8301 112
7265 6509
1629 7961
6925 4981
9863 1289
1820 8926
673 5330
4601 5212
4091 7864
1848 9463
6303 7925
8164 2437
5601 7927
5269 133
1430 8122
9142 7159
2632 4644
765 9949
9868 3217
686 9101
8796 2484
1598 1117
2050 737
9923 7572
1463 2186
7751 4439
805 3165
1889 897
2144 701
9313 6650
4048 5914
3213 1488
5889 276
8107 9468
4760 897
659 387
9218 3339
9002 8649
8549 6150
8436 6215
762 9628
4166 5978
850 9890
3143 7422
451 3775
9739 1998
9282 4229
3720 7888
6696 430
4557 3176
2227 4660
3064 2036
9189 2619
272 7248
1938 8647
8492 166
7609 7159
3399 3696
6705 2056
2722 4303
4797 9337
374 306
841 9486
5076 611
2811 4009
170 436
6301 372
9942 5438
6330 9709
7068 4322
6122 1927
6349 9076
7535 3791
3199 6595
3692 2487
9630 9485
6665 2566
5234 6633
4516 23
8900 9026
2446 1141
4407 4255
1644 7975
8456 6201
3571 5108
3052 3243
4556 7554
7124 4640
6779 9707
3870 2839
2183 7083
1999 4667
8645 6825
6249 6091
4243 2460
3996 5587
3175 5588
4675 9171
967 303
3151 1897
8741 8077
2024 575
4335 6601
9355 8119
2467 3675
7618 3549
2539 1406
8556 8379
8672 8184
3757 7377
9451 9394
9139 6533
2951 7775
9781 3573
8339 8892
8087 3101
8251 1964
9939 5467
5272 1647
7759 8336
6965 7973
9608 354
1724 1174
94 8616
828 1218
4793 315
5864 9680
137 6262
6435 9760
3588 890
6409 8423
8888 2408
5207 8357
6422 4507
7363 5659
176 412
171 9085
7529 9909
7023 3334
8953 7572
861 5556
4879 8855
52 6042
2156 5003
1685 3937
