295374 236713 407
661701 818574 504
899848 376898 525
804727 674279 504
275517 857969 525
685459 62236 509
744357 797024 468
153270 158404 383
789095 664309 504
735477 712970 411
976631 998345 440
35524 923123 525
352145 429302 449
524431 726499 509
469483 466991 413
524628 419940 470
204470 260561 443
581963 54466 470
364948 298854 441
38454 54090 340
975593 176471 525
753589 10583 509
709138 712972 411
896127 501507 525
785405 642256 504
407337 202307 443
77528 920980 525
799676 571870 509
349460 503510 449
742741 926110 525
67060 377162 443
155599 553075 470
721776 219051 509
155752 689782 509
183073 542614 470
102115 436526 449
283553 443309 449
298908 249482 407
570583 128780 470
713273 311668 509
887230 638919 525
853712 369651 525
183033 96861 383
324084 677796 509
861651 212615 525
21334 683500 509
794347 440788 509
855017 651093 525
610959 569215 434
949363 52300 525
296040 789885 509
654184 110800 509
653588 235588 509
88892 676951 509
437463 183820 449
644280 347012 509
224796 46530 386
559828 426845 470
887852 706807 525
535363 361930 470
256575 35575 443
792503 917896 525
667402 462050 509
814795 179734 509
884312 487868 525
44795 817264 509
819910 311179 509
943110 814475 525
666476 568782 509
420391 821553 509
208623 857955 525
437325 701759 509
683568 486315 509
61976 626003 470
963580 9016 525
604936 545329 452
475375 172804 449
811654 156919 509
308681 624522 470
1329 758288 509
503221 778792 509
982373 447170 525
304500 875943 525
904109 29997 525
385180 846868 525
936782 109145 525
851868 945821 507
511178 273750 449
101275 260680 443
857164 360493 525
923895 915983 445
394866 354358 436
5339 825182 509
894197 516816 525
202922 805330 509
67409 655686 509
323564 596225 470
803970 584429 509
578494 312809 470
690228 256361 509
568427 467166 470
307829 793628 509
790387 114266 509
353504 70365 443
899236 298279 525
675959 247018 509
175443 736576 509
227989 805529 509
576660 952041 525
541689 469021 470
430863 294110 449
267997 226025 443
297133 566677 470
243607 778731 509
162899 380088 443
871567 392843 525
902265 487773 525
209305 258785 443
160538 294927 443
940201 369736 525
945558 245354 525
386195 468250 449
41514 365252 443
425501 991848 525
950085 800825 525
650933 354383 509
851322 44918 525
855255 222704 525
115332 683987 509
161959 958246 525
855881 305043 525
716655 800022 468
280689 96440 443
147641 414522 449
970720 398209 525
856207 714514 525
296487 337562 384
126904 132702 344
513007 52974 470
988580 466031 525
213757 291136 443
92496 376107 443
922006 588801 525
695430 38027 509
233475 113168 443
685817 355371 509
277438 966542 525
588070 584738 359
584082 67719 470
323170 13334 443
896510 886391 445
585060 589645 359
766673 999820 525
703980 258337 509
941787 571105 525
308738 277471 389
678443 153202 509
302303 776415 509
256056 109651 443
481770 513341 470
729995 168517 509
186561 37644 383
973518 578024 525
276489 224374 443
262563 543290 470
305220 583150 470
537853 114951 470
866912 64588 525
677107 683373 380
510953 535548 470
339528 649405 509
879758 406760 525
108027 728721 509
896592 281787 525
552156 838018 525
386356 360013 423
119294 466795 449
82475 541465 470
774933 936558 525
39160 328388 443
460420 124588 449
365600 912746 525
738113 5939 509
500317 595073 470
164816 374038 443
942389 473015 525
293344 238756 407
675400 969365 525
668410 870266 525
521967 18526 470
689824 941266 525
432055 338111 449
160547 886638 525
655687 726064 504
480108 836257 509
402077 820570 509
962075 786047 525
191300 918046 525
335505 25680 443
906169 205830 525
29337 833429 509
562488 722824 509
299291 414787 449
168252 626969 509
59183 687386 509
301921 580421 470
749909 211450 509
165982 779025 509
26209 537502 470
567817 232872 470
470107 470077 214
377536 51651 443
51178 96607 351
75580 51724 340
130154 548618 470
144609 172181 383
63462 138115 354
937888 652957 525
213227 706947 509
565129 221558 470
54618 963871 525
53515 107207 354
37704 611332 470
860810 817954 525
947635 783798 525
817519 83855 509
829987 614373 509
857052 114412 525
688528 697263 442
305278 377561 441
893130 106044 525
780756 595460 509
355875 30997 443
426657 337934 449
986226 612785 525
838409 20919 525
229931 600046 470
401161 388340 436
476863 988226 525
498034 470037 426
918695 545144 525
897845 831622 525
150102 443796 449
365551 461960 449
804654 888431 525
903275 743622 525
78772 686209 509
904068 889709 401
670516 167628 509
863917 63772 525
225846 701391 509
481868 609520 470
164226 911617 525
