487681 475477
888274 197039
565232 957144
73045 70229
868596 598641
166335 782841
63365 171053
486852 423151
937099 768896
596117 39747
55526 404644
47931 501060
935991 22678
459873 688452
173991 280019
504595 932831
516128 952206
486125 378018
69469 515772
422082 215762
76221 240240
459315 654909
21456 398359
38486 552972
603638 510586
998637 966028
158804 770851
483933 594138
813319 339113
504708 797123
499305 15524
835604 299459
575617 856590
828464 790457
795145 327580
780253 305539
788553 202839
101206 595706
654659 645621
204584 952836
120657 709955
214734 817487
144737 912810
439353 421284
785593 879796
682245 684901
26819 125645
261026 595679
640907 902988
573830 954135
626082 458279
231412 774506
346564 789156
252697 222733
220364 550515
315810 267188
80528 919495
336476 673505
404465 322200
839931 779852
855045 653070
628068 554517
555000 440842
451513 744591
761479 348700
439312 26672
756488 86654
867868 974110
274158 186143
884868 989673
282898 693754
666877 220721
545656 426239
19743 652534
836782 752691
804620 345263
379801 977608
485303 239932
63374 514060
925791 6320
263551 501874
659044 103849
121023 851301
482553 194257
643105 849614
211815 545144
316678 915589
192040 914049
783416 211150
910447 288622
485622 22233
310585 969435
373338 824871
999380 829060
51768 754042
429265 652316
857292 741344
912689 71710
150061 946840
847829 782763
899181 262930
546875 936504
767419 966231
356325 166025
636006 605593
404127 385005
838824 693716
458668 113710
156306 645909
758143 387491
193557 854483
645432 162298
966227 790747
7565 523727
161408 688338
676494 900807
982689 41403
754291 661560
399282 699960
805889 925107
59344 168577
868746 180225
347333 125486
649110 666572
355368 688971
110345 77758
460178 993396
684946 256936
753381 392899
157742 854603
70650 431663
752747 627433
120361 757792
594469 402014
427456 483643
105512 560168
35665 774550
970529 117046
42399 42089
522127 4559
929307 758368
638725 244922
721401 487984
300725 657825
223929 353877
402043 612560
560004 133929
950716 448203
43345 42580
576783 388947
850172 8162
439117 501345
647761 258903
725378 785520
371076 553742
731158 565629
584659 620528
296450 961746
462140 652461
155133 326079
984745 343518
402487 958102
660163 321729
512984 132278
8232 369803
870001 469741
947097 54225
256986 59799
863734 64109
235162 516105
455386 480966
86831 939615
942552 627212
974335 768620
64767 628097
571765 574770
736289 725910
730273 691670
273827 65242
790267 786172
764254 441374
489371 13783
889050 322858
31080 980949
582010 562524
51689 503134
819401 202581
695486 307985
20267 326711
607023 507139
80542 237219
387583 34405
198337 821389
537963 188304
253763 3041
495294 489874
282144 261024
994799 378823
807112 207986
834237 325595
681616 478320
381608 160790
44933 371239
90998 882102
421625 116313
547932 533128
898002 715609
210216 520248
487509 918774
330161 997483
651427 6389
12043 113119
782115 765154
612730 180275
879049 355074
735887 827269
590868 856493
703496 910392
853050 53077
52648 249426
863839 331118
7877 778715
231303 920015
761849 189641
201257 101824
828485 327622
754077 690135
286109 160237
454873 777734
362317 155053
949615 810955
33691 464348
354122 161238
721638 408240
621392 272308
210212 94298
765626 733920
246702 757702
144319 831269
282514 417459
844599 58500
656443 537593
656400 856578
89338 746351
5161 900345
90360 256960
123544 334985
258250 106976
739198 63194
712766 727379
